Exploratory Data Analysis
…
##   median(PPG)
## 1         7.1

Stats %>% filter(DRtg > median(DRtg)) %>% summarize(median(PPG))

##   median(PPG)
## 1        8.75

The median points per game for the entire dataset was found to be 7.1 points per game while using the summarize function. The filter function was used to find the median points per game of players who had a defensive rating greater than the median defensive rating of the dataset. The result of this was 8.75 points per game. This shows that players with a higher defensive rating show a trend of scoring more points. this increase could also be due to the lower sampling size after filtering out half of the dataset.

Stats %>% group_by(POS,TEAM) %>% summarize(Rebounds = median(RPG)) %>% 
  arrange(-Rebounds)

## # A tibble: 90 x 3
## # Groups:   POS [3]
##    POS   TEAM  Rebounds
##    <fct> <fct>    <dbl>
##  1 C     Det      15.8 
##  2 C     Den      10.2 
##  3 C     Bro       9.75
##  4 C     Uta       9.2 
##  5 C     Mem       9.1 
##  6 C     Pho       8.75
##  7 C     Nyk       8.45
##  8 C     Por       7.9 
##  9 C     Lac       7.2 
## 10 C     Sac       7   
## # … with 80 more rows

Stats %>% group_by(POS,TEAM) %>% summarize(Points = median(PPG)) %>% 
  arrange(-Points)

## # A tibble: 90 x 3
## # Groups:   POS [3]
##    POS   TEAM  Points
##    <fct> <fct>  <dbl>
##  1 C     Den     20.7
##  2 C     Det     17.8
##  3 C     Pho     14.8
##  4 C     Nyk     14.4
##  5 F     Bos     13.0
##  6 F     Was     11.8
##  7 C     Phi     11.7
##  8 C     Mem     11.4
##  9 F     Atl     11.2
## 10 F     Mia     10.9
## # … with 80 more rows

Stats %>% group_by(POS,TEAM) %>% summarize(Offensive.Rating = median(Ortg)) %>% 
  arrange(-Offensive.Rating)

## # A tibble: 90 x 3
## # Groups:   POS [3]
##    POS   TEAM  Offensive.Rating
##    <fct> <fct>            <dbl>
##  1 C     Uta               132 
##  2 C     Lac               130.
##  3 C     Bro               128.
##  4 C     Hou               128.
##  5 C     Lal               125.
##  6 C     San               125.
##  7 C     Dal               124.
##  8 C     Okc               123.
##  9 C     Nor               122.
## 10 F     Mia               122.
## # … with 80 more rows

Stats %>% group_by(POS,TEAM) %>% summarize(Defensive.Rating = median(DRtg)) %>% 
  arrange(-Defensive.Rating)

## # A tibble: 90 x 3
## # Groups:   POS [3]
##    POS   TEAM  Defensive.Rating
##    <fct> <fct>            <dbl>
##  1 G     Por               112.
##  2 G     Atl               111.
##  3 F     Was               111.
##  4 G     Cle               110.
##  5 G     Was               110.
##  6 G     Min               110.
##  7 G     Cha               109.
##  8 G     Mem               109.
##  9 G     Det               109.
## 10 G     Nor               109.
## # … with 80 more rows
…
